<svg xmlns="http://www.w3.org/2000/svg" width="192.11" height="38.248" viewBox="0 0 192.11 38.248">
  <g id="Group_130" data-name="Group 130" transform="translate(43.27 -239.393)">
    <path id="Path_1" data-name="Path 1" d="M-35.818,239.393h3.733l7.439,19.337h-3.827l-1.512-3.984h-7.883l-1.579,3.984H-43.27l7.452-19.337Zm1.893,5.128-2.58,6.635h5.141l-2.562-6.635Zm10.6,14.209v-14.3h5.747c1.88,0,3.163.372,3.836,1.113a3.646,3.646,0,0,1,1.014,2.517,3.115,3.115,0,0,1-2.077,3.01,3.67,3.67,0,0,1,2.84,3.666,3.8,3.8,0,0,1-.749,2.414,3.57,3.57,0,0,1-1.9,1.27,12.711,12.711,0,0,1-3.212.314Zm3.6-8.677h1.382a1.921,1.921,0,0,0,1.359-.44,1.309,1.309,0,0,0,.48-.978,1.645,1.645,0,0,0-.462-1.247,1.5,1.5,0,0,0-1.09-.449l-.458.014H-19.72v3.1Zm0,5.918h1.8a1.878,1.878,0,0,0,1.481-.493,1.5,1.5,0,0,0,.426-.965,1.941,1.941,0,0,0-.48-1.279,2.145,2.145,0,0,0-1.727-.579h-1.5v3.315Zm8.4-11.544H2.009v3.419H-2.738V258.73h-3.6V247.845h-4.98v-3.419Zm21.267-.368a7.616,7.616,0,0,1,3.809,1.014,7.427,7.427,0,0,1,3.778,6.492,7.533,7.533,0,0,1-1,3.786,7.282,7.282,0,0,1-2.741,2.755,7.6,7.6,0,0,1-3.827.991,7.132,7.132,0,0,1-5.249-2.189,7.579,7.579,0,0,1,.282-10.9,7.176,7.176,0,0,1,4.953-1.947ZM10,247.437A3.688,3.688,0,0,0,7.218,248.6a4.133,4.133,0,0,0-1.108,2.974,4.193,4.193,0,0,0,1.1,3.024,3.66,3.66,0,0,0,2.777,1.158,3.708,3.708,0,0,0,2.8-1.171,4.619,4.619,0,0,0,.022-6A3.72,3.72,0,0,0,10,247.437Zm9.714,11.293V239.393H29.822v3.589H23.4v3.706h.8a12.277,12.277,0,0,1,4,.543,5.183,5.183,0,0,1,2.584,2.028,6.064,6.064,0,0,1,1.032,3.531,5.33,5.33,0,0,1-2.912,5.186,7.847,7.847,0,0,1-3.769.754Zm3.683-8.753v5.245h.92q2.524,0,3.194-.659a2.371,2.371,0,0,0,.668-1.772q0-2.813-4.02-2.813Zm24.447,2.643H36.314a3.845,3.845,0,0,0,1.337,2.423,4.172,4.172,0,0,0,2.764.9,4.791,4.791,0,0,0,3.459-1.409l3.024,1.422a7.164,7.164,0,0,1-2.71,2.373,8.472,8.472,0,0,1-3.746.767,7.4,7.4,0,0,1-5.478-2.122,7.224,7.224,0,0,1-2.118-5.316,7.482,7.482,0,0,1,2.109-5.438,7.1,7.1,0,0,1,5.29-2.162,7.361,7.361,0,0,1,5.5,2.162,7.832,7.832,0,0,1,2.118,5.711l-.014.686Zm-3.6-2.826a3.624,3.624,0,0,0-1.4-1.947,4.069,4.069,0,0,0-2.427-.749,4.293,4.293,0,0,0-2.629.843,4.722,4.722,0,0,0-1.315,1.853Zm18.153,8.937H58.743L55.167,249.7l-3.643,9.031H47.886l6.1-14.3H56.3l6.1,14.3Zm7.48-14.671a7.615,7.615,0,0,1,3.809,1.014,7.428,7.428,0,0,1,3.778,6.492,7.533,7.533,0,0,1-1.005,3.786,7.28,7.28,0,0,1-2.741,2.755,7.594,7.594,0,0,1-3.827.991,7.133,7.133,0,0,1-5.249-2.189,7.578,7.578,0,0,1,.283-10.9,7.175,7.175,0,0,1,4.953-1.947Zm.054,3.378a3.687,3.687,0,0,0-2.781,1.166,4.133,4.133,0,0,0-1.108,2.974,4.193,4.193,0,0,0,1.1,3.024,3.66,3.66,0,0,0,2.777,1.158,3.708,3.708,0,0,0,2.8-1.171,4.62,4.62,0,0,0,.022-6,3.72,3.72,0,0,0-2.809-1.153Zm9.319-3.01H87.6v3.419H82.85V258.73h-3.6v-14.3Zm16.363-.368a7.616,7.616,0,0,1,3.809,1.014,7.427,7.427,0,0,1,3.778,6.492,7.533,7.533,0,0,1-1,3.786,7.283,7.283,0,0,1-2.741,2.755,7.6,7.6,0,0,1-3.827.991,7.132,7.132,0,0,1-5.249-2.189,7.578,7.578,0,0,1,.282-10.9,7.176,7.176,0,0,1,4.953-1.947Zm.054,3.378a3.688,3.688,0,0,0-2.782,1.166,4.133,4.133,0,0,0-1.108,2.974,4.193,4.193,0,0,0,1.1,3.024,3.66,3.66,0,0,0,2.777,1.158,3.708,3.708,0,0,0,2.8-1.171,4.619,4.619,0,0,0,.022-6,3.72,3.72,0,0,0-2.808-1.153Zm12.895-3.01v1.579a6.793,6.793,0,0,1,2.1-1.458,6.086,6.086,0,0,1,2.418-.489,6.255,6.255,0,0,1,4.76,2.118,7.682,7.682,0,0,1,1.956,5.429,7.482,7.482,0,0,1-2.024,5.343,6.379,6.379,0,0,1-4.8,2.149,5.992,5.992,0,0,1-2.3-.44,7.078,7.078,0,0,1-2.118-1.44v6.743H105V244.427Zm3.773,2.948a3.745,3.745,0,0,0-2.813,1.157,4.156,4.156,0,0,0-1.117,3.02,4.28,4.28,0,0,0,1.117,3.082,3.715,3.715,0,0,0,2.813,1.18,3.648,3.648,0,0,0,2.768-1.2,4.275,4.275,0,0,0,1.122-3.051,4.232,4.232,0,0,0-1.1-3.015,3.653,3.653,0,0,0-2.786-1.176Zm12.895,2.207h1.063a13.023,13.023,0,0,1,3.45.35,3.819,3.819,0,0,1,2.032,1.449,4.493,4.493,0,0,1,.83,2.773,4.78,4.78,0,0,1-.749,2.755,3.561,3.561,0,0,1-1.916,1.458,11.424,11.424,0,0,1-3.266.364h-5.047v-14.3h3.6v5.155Zm0,6.389h1.09a5.035,5.035,0,0,0,1.409-.139,1.655,1.655,0,0,0,.763-.534,1.464,1.464,0,0,0,.327-.96q0-1.837-2.1-1.839h-1.485v3.472Zm23.335-3.351h-11.53a3.846,3.846,0,0,0,1.337,2.423,4.172,4.172,0,0,0,2.764.9,4.791,4.791,0,0,0,3.459-1.409l3.024,1.422a7.161,7.161,0,0,1-2.71,2.373,8.472,8.472,0,0,1-3.746.767,7.4,7.4,0,0,1-5.478-2.122,7.224,7.224,0,0,1-2.118-5.316,7.482,7.482,0,0,1,2.109-5.438,7.1,7.1,0,0,1,5.289-2.162,7.361,7.361,0,0,1,5.5,2.162,7.832,7.832,0,0,1,2.118,5.711l-.014.686Zm-3.6-2.826a3.623,3.623,0,0,0-1.4-1.947,4.069,4.069,0,0,0-2.427-.749,4.293,4.293,0,0,0-2.629.843,4.723,4.723,0,0,0-1.315,1.853Z" fill="#fff" fill-rule="evenodd"/>
    <path id="Path_2" data-name="Path 2" d="M494.542,349.173l-.016-.254c-33.94-4.077-66.974-4.4-99.353-.558,41.065-3.332,72.7-1.875,99.369,2.487Z" transform="translate(-345.812 -83.818)" fill="#177f29" fill-rule="evenodd"/>
    <path id="Path_3" data-name="Path 3" d="M496.743,356.764c-32.879-5.325-70-4.913-98.78-1.924,32.619-2.1,72.356-1.644,98.78,4.218Z" transform="translate(-348.012 -89.335)" fill="#d9000d" fill-rule="evenodd"/>
    <path id="Path_4" data-name="Path 4" d="M499.444,364.46c-29.721-6.156-68.037-6.7-98.056-4.52,35.081-1.429,71.733-.123,98.056,7.167Z" transform="translate(-350.714 -94.161)" fill="#100e0c" fill-rule="evenodd"/>
    <path id="Path_5" data-name="Path 5" d="M491.647,340.822c-34.361-4.464-67.745-3.6-100.124.241,40.925-3.963,73.669-2.519,100.14,1.371Z" transform="translate(-342.933 -77.628)" fill="#fff" stroke="#e7e8e8" stroke-miterlimit="22.926" stroke-width="0.216" fill-rule="evenodd"/>
    <path id="Path_6" data-name="Path 6" d="M178.692,379.417h4.645v.843h-3.692v6.34h-.953v-7.183ZM184.1,386.6v-7.183h2.712a6.622,6.622,0,0,1,1.093.068,2.184,2.184,0,0,1,.888.334,1.768,1.768,0,0,1,.577.692,2.329,2.329,0,0,1-.366,2.525,2.8,2.8,0,0,1-2.109.634h-1.843V386.6Zm.953-3.772h1.856a1.97,1.97,0,0,0,1.309-.343,1.224,1.224,0,0,0,.386-.966,1.3,1.3,0,0,0-.228-.771,1.07,1.07,0,0,0-.6-.425,4.111,4.111,0,0,0-.886-.064h-1.838v2.568Zm4.79-3.411h.956l2.353,4.416,2.045-4.416h.936L193.447,385a5.584,5.584,0,0,1-.828,1.373,1.25,1.25,0,0,1-.925.323,3.053,3.053,0,0,1-.9-.171v-.813a1.586,1.586,0,0,0,.807.221.876.876,0,0,0,.6-.224,2.836,2.836,0,0,0,.555-1.018l-2.909-5.278Zm7.111,0H202.6V386.6h-.953v-6.34h-3.732v6.34h-.953v-7.183Zm7.211,0h5.638V386.6h-.953v-6.34h-3.732v6.34h-.953v-7.183Zm6.414,7.183,2.755-7.183h1.045l2.924,7.183h-1.082l-.831-2.177h-3.025l-.779,2.177Zm2.066-2.949H215.1l-.749-1.991c-.226-.605-.4-1.105-.515-1.5a10.168,10.168,0,0,1-.4,1.383l-.788,2.109Zm8.22-4.234h.953v3.15a1.309,1.309,0,0,0,.915-.254,4.2,4.2,0,0,0,.675-1.216,6.429,6.429,0,0,1,.493-1,1.526,1.526,0,0,1,.552-.492,1.6,1.6,0,0,1,.789-.2c.366,0,.558,0,.578.01v.823l-.191-.005-.192,0a.92.92,0,0,0-.675.221,3.032,3.032,0,0,0-.515.941,3.675,3.675,0,0,1-.612,1.152,1.926,1.926,0,0,1-.6.379,2.657,2.657,0,0,1,1.373,1.286l1.48,2.391h-1.18l-1.206-1.946a5.4,5.4,0,0,0-.826-1.112,1.229,1.229,0,0,0-.861-.3V386.6h-.953v-7.183Zm5.421,3.687a3.9,3.9,0,0,1,.961-2.8,3.267,3.267,0,0,1,2.48-1.01,3.451,3.451,0,0,1,1.794.475,3.1,3.1,0,0,1,1.217,1.324,4.288,4.288,0,0,1,.42,1.924,4.218,4.218,0,0,1-.441,1.953,3,3,0,0,1-1.249,1.3,3.574,3.574,0,0,1-1.746.443,3.407,3.407,0,0,1-1.814-.49,3.148,3.148,0,0,1-1.211-1.336,4.043,4.043,0,0,1-.411-1.791Zm.983.017a2.869,2.869,0,0,0,.7,2.042,2.438,2.438,0,0,0,3.516-.007,3.042,3.042,0,0,0,.692-2.137,3.67,3.67,0,0,0-.3-1.528,2.274,2.274,0,0,0-.866-1.012,2.359,2.359,0,0,0-1.281-.359,2.43,2.43,0,0,0-1.735.692,3.084,3.084,0,0,0-.727,2.309Zm7.091,3.479v-7.183h1.425l1.7,5.085q.236.71.343,1.063.123-.391.385-1.152l1.729-5h1.272V386.6H240.3V380.59l-2.1,6.009h-.856l-2.073-6.12v6.12Zm8.387-7.183h5.638V386.6h-.953v-6.34H243.7v6.34h-.953v-7.183Zm6.414,7.183,2.755-7.183h1.045l2.924,7.183h-1.082l-.831-2.177h-3.025l-.779,2.177Zm2.067-2.949h2.448l-.749-1.991c-.226-.605-.4-1.105-.515-1.5a10.114,10.114,0,0,1-.4,1.383l-.787,2.109Zm5.452,2.949v-7.183h.953v2.959h3.712v-2.959h.953V386.6h-.953v-3.381h-3.712V386.6Zm7.225-7.183h.863V385.1l3.824-5.688h.941V386.6h-.863v-5.673L264.86,386.6h-.951v-7.183Zm7.211,0h.863V385.1l3.824-5.688h.941V386.6h-.863v-5.673l-3.814,5.673h-.951v-7.183Zm3.581-1.726h.6a1.339,1.339,0,0,1-1.45,1.284,1.464,1.464,0,0,1-1-.329,1.445,1.445,0,0,1-.448-.955h.6a.754.754,0,0,0,.821.672.946.946,0,0,0,.6-.162A.823.823,0,0,0,274.7,377.691Z" transform="translate(-175.067 -109.079)" fill="#fff" fill-rule="evenodd"/>
  </g>
</svg>
