<svg xmlns="http://www.w3.org/2000/svg" width="64" height="64" viewBox="0 0 64 64">
  <path id="Volkswagen_logo_2019" d="M32,60.229A28.133,28.133,0,0,1,5.486,22.743l16.457,32c.229.457.457.8,1.029.8s.8-.343,1.029-.8l7.657-17.029q.171-.343.343-.343c.229,0,.229.229.343.343l7.771,17.029c.229.457.457.8,1.029.8s.8-.343,1.029-.8l16.457-32A27.146,27.146,0,0,1,60.229,32,28.513,28.513,0,0,1,32,60.229Zm0-35.543c-.229,0-.229-.229-.343-.343l-8.8-18.971a26.922,26.922,0,0,1,18.286,0l-8.8,18.971c-.114.114-.114.343-.343.343ZM22.743,45.257c-.229,0-.229-.229-.343-.343L8,17.257A28.925,28.925,0,0,1,18.4,7.314L28.571,29.257c.229.457.457.571.8.571h5.257c.343,0,.571-.114.8-.571L45.486,7.314a28.925,28.925,0,0,1,10.4,9.943L41.6,44.914q-.171.343-.343.343c-.229,0-.229-.229-.343-.343L35.429,32.8c-.229-.457-.457-.571-.8-.571H29.371c-.343,0-.571.114-.8.571L23.086,44.914c-.114.114-.114.343-.343.343ZM32,64A32,32,0,1,0,0,32,31.947,31.947,0,0,0,32,64Z" fill="#001e50"/>
</svg>
