<svg xmlns="http://www.w3.org/2000/svg" width="17.414" height="9.207" viewBox="0 0 17.414 9.207">
  <path id="Path_91" data-name="Path 91" d="M-14397-18235l8,8,8-8" transform="translate(14397.707 18235.707)" fill="none" stroke="#5e6170" stroke-linecap="round" stroke-linejoin="round" stroke-width="1"/>
</svg>
