<svg xmlns="http://www.w3.org/2000/svg" width="32" height="32" viewBox="0 0 32 32">
  <path id="clock" d="M18,34A16,16,0,1,1,34,18,16,16,0,0,1,18,34Zm0-1.6A14.4,14.4,0,1,0,3.6,18,14.4,14.4,0,0,0,18,32.4Zm6.065-11.051a.8.8,0,0,1-.93,1.3l-5.6-4a.8.8,0,0,1-.307-.44l-2.4-8.8a.8.8,0,0,1,1.544-.421L18.7,17.515Z" transform="translate(-2 -2)"/>
</svg>
