<svg xmlns="http://www.w3.org/2000/svg" width="30.223" height="32" viewBox="0 0 30.223 32">
  <path id="download" d="M20.076,14.222,14.482,8.629A.889.889,0,1,1,15.74,7.372l7.111,7.111a.889.889,0,0,1,0,1.257L15.74,22.851a.889.889,0,0,1-1.257-1.257L20.076,16H.889a.889.889,0,0,1,0-1.778ZM22.222,1.778a.889.889,0,0,1,0-1.778h5.333A4.444,4.444,0,0,1,32,4.445V25.778a4.445,4.445,0,0,1-4.444,4.445H22.222a.889.889,0,0,1,0-1.778h5.333a2.667,2.667,0,0,0,2.667-2.667V4.445a2.667,2.667,0,0,0-2.667-2.667Z" transform="translate(30.223) rotate(90)"/>
</svg>
