<svg xmlns="http://www.w3.org/2000/svg" width="40" height="40" viewBox="0 0 40 40">
  <g id="Group_40" data-name="Group 40" transform="translate(-600 -928)">
    <g id="Ellipse_38" data-name="Ellipse 38" transform="translate(600 928)" fill="none" stroke="#fff" stroke-width="1">
      <circle cx="20" cy="20" r="20" stroke="none"/>
      <circle cx="20" cy="20" r="19.5" fill="none"/>
    </g>
    <path id="Path_110" data-name="Path 110" d="M-16898-21973l6,6-6,6" transform="translate(17516 22915)" fill="none" stroke="#fff" stroke-linecap="round" stroke-linejoin="round" stroke-width="1"/>
  </g>
</svg>
