<svg xmlns="http://www.w3.org/2000/svg" width="15.75" height="14" viewBox="0 0 15.75 14">
  <path id="Path_106" data-name="Path 106" d="M17.875,9.25c0-2.765-1.5-4.375-3.937-4.375a2.7,2.7,0,0,0-2.671,1.508.437.437,0,0,1-.783,0A2.7,2.7,0,0,0,7.813,4.875c-2.435,0-3.937,1.61-3.937,4.375,0,2.1,2.318,4.724,7,7.79C15.557,13.974,17.875,11.349,17.875,9.25ZM13.938,4c2.932,0,4.813,2.015,4.813,5.25,0,2.532-2.562,5.4-7.637,8.68a.437.437,0,0,1-.475,0C5.562,14.646,3,11.782,3,9.25,3,6.015,4.881,4,7.813,4a3.639,3.639,0,0,1,3.063,1.361A3.639,3.639,0,0,1,13.938,4Z" transform="translate(-3 -4)"/>
</svg>
