<svg xmlns="http://www.w3.org/2000/svg" width="30.084" height="24.001" viewBox="0 0 30.084 24.001">
  <path id="money-stack" d="M8.017,5.5v.75A3.755,3.755,0,0,1,4.256,10H3.5v6h.814a3.755,3.755,0,0,1,3.76,3.75v.75H26.067v-.75A3.755,3.755,0,0,1,29.828,16h.752V10h-.752a3.755,3.755,0,0,1-3.76-3.75V5.5Zm-1.5,0H5.76A2.253,2.253,0,0,0,3.5,7.75V8.5h.752A2.253,2.253,0,0,0,6.513,6.25Zm.062,15v-.75A2.253,2.253,0,0,0,4.319,17.5H3.5v.75A2.253,2.253,0,0,0,5.76,20.5ZM7.6,22a.756.756,0,0,1-.553,0H5.76A3.755,3.755,0,0,1,2,18.25V7.75A3.755,3.755,0,0,1,5.76,4H28.323a3.755,3.755,0,0,1,3.76,3.75v10.5A3.755,3.755,0,0,1,28.323,22Zm19.968-1.5h.752a2.253,2.253,0,0,0,2.256-2.25V17.5h-.752a2.253,2.253,0,0,0-2.256,2.25Zm0-15v.75A2.253,2.253,0,0,0,29.828,8.5h.752V7.75A2.253,2.253,0,0,0,28.323,5.5ZM17.042,19a6,6,0,1,1,6.017-6A6.009,6.009,0,0,1,17.042,19Zm0-1.5A4.5,4.5,0,1,0,12.529,13,4.506,4.506,0,0,0,17.042,17.5ZM2.752,25a.75.75,0,1,1,0-1.5h28.58a.75.75,0,1,1,0,1.5Zm0,3a.75.75,0,1,1,0-1.5h28.58a.75.75,0,1,1,0,1.5Z" transform="translate(-2 -4)"/>
</svg>
