<svg xmlns="http://www.w3.org/2000/svg" width="14" height="14" viewBox="0 0 14 14">
  <path id="Path_107" data-name="Path 107" d="M7.281,15.954a.35.35,0,0,1-.484-.142l-.921-1.768L3.9,13.932a.35.35,0,0,1-.329-.379l.172-1.993-1.6-1.173a.35.35,0,0,1-.071-.5L3.283,8.308,2.562,6.444a.35.35,0,0,1,.208-.456l1.863-.669.391-1.96a.35.35,0,0,1,.424-.272l1.923.454L8.747,2.108a.35.35,0,0,1,.5,0l1.376,1.433,1.923-.454a.35.35,0,0,1,.424.272l.391,1.96,1.863.669a.35.35,0,0,1,.208.456l-.721,1.864,1.211,1.583a.35.35,0,0,1-.071.5l-1.6,1.173.172,1.993a.35.35,0,0,1-.329.379l-1.973.112L11.2,15.812a.35.35,0,0,1-.484.142L9,14.971Zm-.032-.788,1.577-.9a.35.35,0,0,1,.348,0l1.577.9.845-1.622a.35.35,0,0,1,.291-.188l1.812-.1-.158-1.83a.35.35,0,0,1,.142-.312l1.473-1.079L14.042,8.577a.35.35,0,0,1-.048-.339l.662-1.712-1.712-.615a.35.35,0,0,1-.225-.261l-.359-1.8-1.765.417a.35.35,0,0,1-.333-.1L9,2.855,7.738,4.17a.35.35,0,0,1-.333.1L5.64,3.851l-.359,1.8a.35.35,0,0,1-.225.261l-1.712.615.662,1.712a.35.35,0,0,1-.048.339L2.845,10.032l1.473,1.079a.35.35,0,0,1,.142.312L4.3,13.253l1.812.1a.35.35,0,0,1,.291.188Zm3.216-8.819a.35.35,0,0,1,.57.407l-3.5,4.9a.35.35,0,0,1-.57-.407ZM6.9,6.9v.7h.7V6.9Zm0-.7h.7a.7.7,0,0,1,.7.7v.7a.7.7,0,0,1-.7.7H6.9a.7.7,0,0,1-.7-.7V6.9A.7.7,0,0,1,6.9,6.2Zm3.5,4.2v.7h.7v-.7Zm0-.7h.7a.7.7,0,0,1,.7.7v.7a.7.7,0,0,1-.7.7h-.7a.7.7,0,0,1-.7-.7v-.7A.7.7,0,0,1,10.4,9.7Z" transform="translate(-2 -2)"/>
</svg>
