<svg xmlns="http://www.w3.org/2000/svg" width="18" height="17.986" viewBox="0 0 18 17.986">
  <path id="rotate-left" d="M17,5.754V8.5a.5.5,0,0,1-1,0v-4a.5.5,0,0,1,.5-.5h4a.5.5,0,0,1,0,1H17.658a9,9,0,1,1-6.182-1.985.5.5,0,0,1,.057,1A8,8,0,1,0,17,5.754Z" transform="translate(-3 -3.014)"/>
</svg>
