<svg xmlns="http://www.w3.org/2000/svg" width="40.153" height="44" viewBox="0 0 40.153 44">
  <g id="_037-chassis" data-name="037-chassis" transform="translate(42.849 -3.68) rotate(90)">
    <g id="Group_231" data-name="Group 231" transform="translate(3.68 2.695)">
      <g id="Group_230" data-name="Group 230">
        <path id="Path_306" data-name="Path 306" d="M43.871,80.576l2.116,2.116a5.113,5.113,0,0,0,2.733,1.575v5.365l-3.174-.68a1.69,1.69,0,0,0-2.116,1.323l-.353,1.763a1.816,1.816,0,0,0,.265,1.323,1.731,1.731,0,0,0,1.146.794l8.641,1.852h.353a3.168,3.168,0,0,0,.97-.176,1.731,1.731,0,0,0,.794-1.146L55.6,92.92A1.831,1.831,0,0,0,54.188,90.8l-3.7-.794V84.292A4.9,4.9,0,0,0,53.306,82.6l2.116-2.116a5.178,5.178,0,0,0,1.952-3.174h12.57a5.227,5.227,0,0,0,2.143,3.262L74.2,82.692a5.113,5.113,0,0,0,2.733,1.575v5.391H73.41a1.769,1.769,0,0,0-1.764,1.764v1.764a1.769,1.769,0,0,0,1.764,1.764h8.818a1.769,1.769,0,0,0,1.764-1.764V91.421a1.769,1.769,0,0,0-1.764-1.764H78.7V84.292A4.9,4.9,0,0,0,81.523,82.6l2.116-2.116a5.093,5.093,0,0,0,2.028-4.056,5.26,5.26,0,0,0-2.028-4.144l-2.116-2.116A5.1,5.1,0,0,0,78.7,68.578V63.2h3.527a1.769,1.769,0,0,0,1.764-1.764V59.678a1.769,1.769,0,0,0-1.764-1.764H73.41a1.769,1.769,0,0,0-1.764,1.764v1.764a1.769,1.769,0,0,0,1.764,1.764h3.527v5.376a4.981,4.981,0,0,0-2.733,1.59l-2.116,2.116a5.463,5.463,0,0,0-2.1,3.262H57.377a5.3,5.3,0,0,0-1.954-3.262l-2.116-2.116a5.1,5.1,0,0,0-2.822-1.592V62.273l3.527.756h.353a2.347,2.347,0,0,0,1.058-.265,1.731,1.731,0,0,0,.794-1.146l.353-1.764a1.831,1.831,0,0,0-1.411-2.116l-8.641-1.852A1.831,1.831,0,0,0,44.4,57.3l-.353,1.764a1.69,1.69,0,0,0,1.323,2.116l3.351.718v6.686a4.981,4.981,0,0,0-2.733,1.59l-2.116,2.116a5.386,5.386,0,0,0-2.2,4.321,4.883,4.883,0,0,0,2.2,3.968Zm9.611,13.667-8.641-1.764.353-1.763,4.11.839a.973.973,0,0,0,.171.035l4.36.89Zm28.745-1.058H73.41V91.421h8.818ZM73.41,59.678h8.818v1.764H73.41Zm-27.335-1.94,8.641,1.852-.353,1.764-4.234-.907A.926.926,0,0,0,49.6,60.3a1.092,1.092,0,0,0-.135.009l-3.745-.8ZM73.234,73.61l.088-.088,2.2-2.2a3.149,3.149,0,0,1,2.381-1.058,3.481,3.481,0,0,1,2.469,1.058l2.2,2.2a4,4,0,0,1,1.411,2.91,3.65,3.65,0,0,1-1.411,2.733l-.088.088-2.2,2.2A3.253,3.253,0,0,1,77.819,82.6a3.4,3.4,0,0,1-2.381-1.146l-2.2-2.2-.088-.088a3.335,3.335,0,0,1-1.5-2.645A3.655,3.655,0,0,1,73.234,73.61Zm-28.216,0,.088-.088,2.2-2.2a3.149,3.149,0,0,1,2.381-1.058,3.482,3.482,0,0,1,2.469,1.058l2.2,2.2a4,4,0,0,1,1.411,2.91,3.65,3.65,0,0,1-1.411,2.733l-.088.088-2.2,2.2A3.253,3.253,0,0,1,49.6,82.6a3.4,3.4,0,0,1-2.381-1.146l-2.2-2.2-.088-.088a3.335,3.335,0,0,1-1.5-2.645A3.783,3.783,0,0,1,45.018,73.61Z" transform="translate(-41.667 -55.853)"/>
      </g>
    </g>
  </g>
</svg>
