<svg xmlns="http://www.w3.org/2000/svg" width="31.975" height="32" viewBox="0 0 31.975 32">
  <path id="headphone" d="M8.4,25.991V16.4H6a2.4,2.4,0,0,0-2.4,2.4v4.8a2.4,2.4,0,0,0,2.4,2.4Zm12.653,4.8h3.428a2.4,2.4,0,0,0,2.275-1.64l.364-1.093a3.027,3.027,0,0,1,.2-.465h-.534a.8.8,0,0,1-.8-.8V15.6a.8.8,0,0,1,.8-.8h.8V13.176a9.593,9.593,0,1,0-19.185,0V14.8h.8a.8.8,0,0,1,.8.8V26.79a.8.8,0,0,1-.8.8H6a4,4,0,0,1-4-4V18.8a4,4,0,0,1,4-4h.8V13.176a11.191,11.191,0,0,1,22.383,0V14.8h.8a4,4,0,0,1,4,4v4.8a4,4,0,0,1-4,4,1.419,1.419,0,0,0-1.346.97l-.364,1.093a4,4,0,0,1-3.792,2.733H21.048a2.4,2.4,0,0,1-2.262,1.6h-1.6a2.4,2.4,0,0,1,0-4.8h1.6A2.4,2.4,0,0,1,21.048,30.787ZM27.58,16.4v9.593h2.4a2.4,2.4,0,0,0,2.4-2.4V18.8a2.4,2.4,0,0,0-2.4-2.4ZM16.389,31.586a.8.8,0,0,0,.8.8h1.6a.8.8,0,0,0,0-1.6h-1.6A.8.8,0,0,0,16.389,31.586Z" transform="translate(-2 -1.984)"/>
</svg>
