<svg xmlns="http://www.w3.org/2000/svg" width="16" height="16" viewBox="0 0 16 16">
  <g id="Icon_ionic-ios-information-circle-outline" data-name="Icon ionic-ios-information-circle-outline" transform="translate(-0.075 0.375)">
    <path id="Path_581" data-name="Path 581" d="M16.435,11.44a1.176,1.176,0,0,1,1-1,1.167,1.167,0,0,1,1,1,1.167,1.167,0,0,1-1,1A1.176,1.176,0,0,1,16.435,11.44Zm0,1h2v6h-2Z" transform="translate(-9.359 -6.816)"/>
    <path id="Path_582" data-name="Path 582" d="M11.45,4a7.094,7.094,0,0,1,5,2,7.094,7.094,0,0,1,2,5,7.094,7.094,0,0,1-2,5,7.094,7.094,0,0,1-5,2,7.094,7.094,0,0,1-5-2,7.094,7.094,0,0,1-2-5,7.094,7.094,0,0,1,2-5,7.094,7.094,0,0,1,5-2m0-1a8,8,0,1,0,8,8,8,8,0,0,0-8-8Z" transform="translate(-3.375 -3.375)"/>
  </g>
</svg>
