<svg xmlns="http://www.w3.org/2000/svg" width="17.207" height="17.207" viewBox="0 0 17.207 17.207">
  <g id="Icon_feather-search" data-name="Icon feather-search" transform="translate(0.5 0.5)">
    <path id="Path_634" data-name="Path 634" d="M18.722,11.611A7.111,7.111,0,1,1,11.611,4.5a7.111,7.111,0,0,1,7.111,7.111Z" transform="translate(-4.5 -4.5)" fill="none" stroke-linecap="round" stroke-linejoin="round" stroke-width="1"/>
    <path id="Path_635" data-name="Path 635" d="M28.842,28.842l-3.867-3.867" transform="translate(-12.842 -12.842)" fill="none" stroke-linecap="round" stroke-linejoin="round" stroke-width="1"/>
  </g>
</svg>
