<svg xmlns="http://www.w3.org/2000/svg" xmlns:xlink="http://www.w3.org/1999/xlink" width="29.527" height="29.527" viewBox="0 0 29.527 29.527">
  <defs>
    <clipPath id="clip-path">
      <path id="Path_126" data-name="Path 126" d="M0,0H29.527V29.527H0Z" clip-rule="evenodd"/>
    </clipPath>
  </defs>
  <g id="u391" transform="translate(-1034 -320)">
    <g id="Group_76" data-name="Group 76" transform="translate(1034 320)" clip-path="url(#clip-path)">
      <g id="Group_75" data-name="Group 75" transform="translate(0.001 6.409)">
        <path id="Path_125" data-name="Path 125" d="M28.3,20.481a39.989,39.989,0,0,0-2.893-2.91c-.883-.861-.939-1.361-.229-2.355.775-1.085,1.608-2.129,2.39-3.209a11.651,11.651,0,0,0,1.86-3.225c.244-.769.028-1.109-.76-1.243a2.434,2.434,0,0,0-.415-.025l-4.678-.006a1.046,1.046,0,0,0-1.1.753c-.275.69-.559,1.38-.886,2.046a16.816,16.816,0,0,1-2.738,4.207c-.257.273-.541.617-.97.475-.537-.2-.695-1.08-.686-1.379l0-5.4c-.1-.771-.275-1.115-1.041-1.265h-4.86a1.546,1.546,0,0,0-1.32.656c-.2.234-.26.386.151.464a1.622,1.622,0,0,1,1.382,1.484,16.585,16.585,0,0,1,.069,3.887,3.615,3.615,0,0,1-.248,1.11.655.655,0,0,1-1.113.327A4.513,4.513,0,0,1,9.135,13.69,26.112,26.112,0,0,1,6.282,8.4a1.236,1.236,0,0,0-1.168-.875C3.71,7.5,2.306,7.5.9,7.527c-.845.016-1.1.426-.752,1.192A52.26,52.26,0,0,0,5.6,18.437a13.575,13.575,0,0,0,4.141,3.877A11.014,11.014,0,0,0,15.9,23.638c1.018-.048,1.323-.312,1.371-1.327A4.493,4.493,0,0,1,17.72,20.3a.9.9,0,0,1,1.431-.348,4.06,4.06,0,0,1,.774.689c.573.627,1.125,1.272,1.72,1.878a3.326,3.326,0,0,0,2.74,1.116h4.3c.693-.045,1.052-.895.654-1.668A8.279,8.279,0,0,0,28.3,20.481Z" transform="translate(-0.001 -6.945)"/>
      </g>
    </g>
  </g>
</svg>
